-------------------------------------------------------------------------------
Test set: fr.snichele.formations.sonar.superbbutfraudstatistics.BudyTest
-------------------------------------------------------------------------------
Tests run: 1, Failures: 0, Errors: 0, Skipped: 0, Time elapsed: 0.122 sec
